ETAT DES FACTURATIONS,,,,,,,,
Janvier,,,,,,,,
2014,,,,,,,,
74 ISABELLE GARBAY SAVERIO,,,,,,,,
DATE,FACTURE,COMMANDE,CLIENT,Adresse,Complément Adresse,CP,Ville,CA
24/01/2014 08:08:08 4201356 382024/240114,382024,MARIE CURIE,23 RUE DES ECOLES,82100,CASTELSARRASIN,"736,48"
24/01/2014,4201376,538554/2,446062,BD JACQUES CHAPOU,BOULEVARD JACQUES CHAPOU,46800,MONTCUQ,"180,09"
24/01/2014,A420151,538554/2,446062,BD JACQUES CHAPOU,BOULEVARD JACQUES CHAPOU,46800,MONTCUQ,"-180,09"
17/01/2014,4200750,538599/1,482091,,,82330,VAREN,"76,67"
17/01/2014,A420080,538599/2,482091,,,82330,VAREN,"-76,67"
21/01/2014,4200988,631269,LC2404,64 AV VICTOR HUGO,,24120,TERRASSON,"90,89"
20/01/2014,4200894,633101,446022,.,PLACE DE LA MAIRIE,46230,CIEURAC,"122,27"
20/01/2014,4200888,633102,282003,GROUPE SCOLAIRE J ZAY,2 RUE DES ECOLES,82710,BRESSOLS,"540,81"
20/01/2014,4200883,633103,333200,.,28 RUE DES ECOLES,33890,PESSAC SUR DORDOGNE,"275,54"
20/01/2014,4200885,633104,424139,.,BOURG,24250,ST MARTIAL DE NABIRAT,"429,1"
29/01/2014,4201724,633106,424127,.,BOURG,24250,ST CYBRANET,"103,32"
29/01/2014,4201725,633107,224023,.,BOURG,24250,NABIRAT,"198,1"
29/01/2014,4201726,633108,465594,.,RUE DES ECOLES,65490,OURSBELILLE,"453,55"
29/01/2014,4201727,633109,447150,.,,47220,ST NICOLAS DE LA BALERME,"112,8"
29/01/2014,4201729,633111,365127,.,RUE DE SOULANSERRE,65220,TRIE SUR BAISE,"488,14"
29/01/2014,4201730,633112,232054,EMPU ORBESSAN,,32260,ORBESSAN,"198,1"
29/01/2014,4201731,633113,232054,EMPU ORBESSAN,,32260,ORBESSAN,"74,88"
31/01/2014,4201964,633114,347047,BEOUSSE,47 RUE DE L ECOLE,47550,BOE,"103,32"
31/01/2014,4201963,633115,347039,.,ROUTE DE SAINT AMANS,47240,CASTELCULIER,"74,88"
13/01/2014,4200312,633538,247044,.,,47200,VIRAZEIL,"9,38"
14/01/2014,4200414,633539,247014,.,,47250,GUERIN,"212,32"
13/01/2014,4200296,633576,847008,AVENUE GUY DE SCORAILLE,,47300,VILLENEUVE SUR LOT,"68,76"
13/01/2014,4200291,633577,347011,.,,47340,LA CROIX BLANCHE,"284,08"
13/01/2014,4200299,633578,424183,.,BOURG,24410,ST PRIVAT DES PRES,"258,77"
13/01/2014,4200298,633579,224058,.,AVENUE DE LA DOUBLE,24490,LA ROCHE CHALAIS,"198,1"
13/01/2014,4200297,633580,224058,.,AVENUE DE LA DOUBLE,24490,LA ROCHE CHALAIS,"36,4"
13/01/2014,4200292,633581,447143,.,,47400,FAUGUEROLLES,"452,13"
13/01/2014,4200293,633582,347059,.,,47360,LUSIGNAN PETIT,"273,37"
13/01/2014,4200294,633583,447077,.,,47600,MONCRABEAU,"396,2"
31/01/2014,4201966,633584,247033,JEAN MOULIN,RUE DE NAZARETH,47600,NERAC,"94,98"
13/01/2014,4200295,633585,424130,.,BOURG,24590,ST GENIES,"55,92"
13/01/2014,4200313,633586,247044,.,,47200,VIRAZEIL,"198,1"
13/01/2014,4200314,633587,247044,.,,47200,VIRAZEIL,"55,55"
14/01/2014,4200412,633590,447048,.,,47200,GAUJAC,"112,8"
20/01/2014,4200869,633591,347065,LIBOS,2 RUE DES ECOLES,47500,MONSEMPRON LIBOS,"305,2"
20/01/2014,4200873,633592,447097,LAPIERRE,,47500,ST FRONT SUR LEMANCE,"10,58"
20/01/2014,4200861,633593,424020,.,BOURG,24540,CAPDROT,"183,89"
20/01/2014,4200860,633594,424020,.,BOURG,24540,CAPDROT,"128,96"
20/01/2014,4200862,633595,424137,.,BOURG,24400,ST LOUIS EN L ISLE,"205,92"
20/01/2014,4200868,633596,424077,.,BOURG,24700,MENESPLET,"212,14"
20/01/2014,4200867,633597,282037,MARCEL GUERRET AN IUFM,28 AVENUE CHARLES DE GAULLE,82000,MONTAUBAN,"198,1"
20/01/2014,4200864,633598,482077,JEAN MOULIN,AVENUE LOUIS BESSIERES,82240,PUYLAROQUE,"239,81"
21/01/2014,4201098,633599,482090,,,82800,VAISSAC,"123,62"
21/01/2014,4201099,633600,482090,,,82800,VAISSAC,"13,46"
29/01/2014,4201657,633601,447110,.,ALLEES DU DR GABOURIN,47180,MEILHAN SUR GARONNE,"183,89"
29/01/2014,4201728,633603,447067,.,,47700,LEYRITZ MONCASSIN,"160,19"
17/01/2014,4200744,638554/1,446062,BD JACQUES CHAPOU,BOULEVARD JACQUES CHAPOU,46800,MONTCUQ,"180,09"
17/01/2014,A420074,638554/2,446062,BD JACQUES CHAPOU,BOULEVARD JACQUES CHAPOU,46800,MONTCUQ,"-180,09"
15/01/2014,4200492,LC2402/58235,LC2402,17 COURS MONTAIGNE,,24000,PERIGUEUX,"62,86"
24/01/2014,4201359,LC4702/86077,LC4702,LIBRAIRIE-PAPETERIE,85 BD DE LA REPUBLIQUE,47000,AGEN,"5,68"
16/01/2014,4200642,LC8201/160114,LC8201,38 BD DIDIER REY,,82300,CAUSSADE,"290,24"
24/01/2014,4201365,LC8201/240114,LC8201,38 BD DIDIER REY,,82300,CAUSSADE,"290,24"
15/01/2014,4200546,LP3205/090114,LP3205,FRANCOISE CORBEL,10 PLACE DE LA LIBERTE,32800,EAUZE,"10,48"
07/01/2014,4200036,LP6518/7420,LP6518,9 11 PLACE DU CHAMP COMMUN,,65108,LOURDES,"14,51"
06/01/2014,3234434,W201311441,347011,.,,47340,LA CROIX BLANCHE,"137,44"
06/01/2014,3234425,W201311451,CB2401,4 CHEMIN DE MAINE DEL CAP,,24100,LEMBRAS,"30,65"
13/01/2014,4200351,W201311459,CB4601,MAS DE CHARLES,,46320,LIVERNON,"104,92"
20/01/2014,4200965,W201311463,624907,LES PARRAUDS ,,24110,MONTREM,"62,56"
20-01-2014 08:08:08 ,4200769,W201311465,CB4701,LIEU DIT BASTIE ET FOUILLARDET ,,47110,LE TEMPLE SUR LOT ,"145,97"
20-01-2014,4200786,W201311470,CB4701,LIEU DIT BASTIE ET FOUILLARDET ,,47110,LE TEMPLE SUR LOT ,"20,23"
,,,,,,,TOTAL,"9 850,58"
